<svg width="18" height="18" viewBox="0 0 18 18" fill="none" xmlns="http://www.w3.org/2000/svg">
<path fill-rule="evenodd" clip-rule="evenodd" d="M3.10677 14.8927C4.68073 16.4666 6.77344 17.3334 8.99935 17.3334C11.2253 17.3334 13.318 16.4667 14.8919 14.8927C16.4659 13.3187 17.3327 11.226 17.3327 9.00008C17.3327 6.77417 16.4659 4.68146 14.8919 3.1075C13.318 1.53355 11.2253 0.666748 8.99935 0.666748C6.77344 0.666748 4.6807 1.53351 3.10677 3.1075C1.53285 4.68149 0.666016 6.77417 0.666016 9.00008C0.666016 11.226 1.53281 13.3187 3.10677 14.8927ZM7.46217 7.17716C7.46217 7.89513 8.15175 8.47925 8.99935 8.47925C10.525 8.47925 11.7663 9.53065 11.7663 10.823C11.7663 11.9363 10.8448 12.8701 9.61422 13.1077V13.6876C9.61422 13.9752 9.33895 14.2084 8.99935 14.2084C8.65975 14.2084 8.38448 13.9752 8.38448 13.6876V13.1077C7.15389 12.8701 6.23242 11.9363 6.23242 10.823C6.23242 10.5354 6.50769 10.3022 6.84729 10.3022C7.1869 10.3022 7.46217 10.5354 7.46217 10.823C7.46217 11.541 8.15175 12.1251 8.99935 12.1251C9.84695 12.1251 10.5365 11.541 10.5365 10.823C10.5365 10.105 9.84695 9.52091 8.99935 9.52091C7.47366 9.52091 6.23242 8.46951 6.23242 7.17716C6.23242 6.06385 7.15389 5.13003 8.38448 4.89246V4.31258C8.38448 4.02495 8.65975 3.79175 8.99935 3.79175C9.33895 3.79175 9.61422 4.02495 9.61422 4.31258V4.89246C10.8448 5.13003 11.7663 6.06385 11.7663 7.17716C11.7663 7.46479 11.491 7.698 11.1514 7.698C10.8118 7.698 10.5365 7.46479 10.5365 7.17716C10.5365 6.4592 9.84695 5.87508 8.99935 5.87508C8.15175 5.87508 7.46217 6.4592 7.46217 7.17716Z" fill="#2753B8"/>
</svg>
